<svg xmlns="http://www.w3.org/2000/svg" viewBox="0 0 20 20">
  <path d="M17.607 16.746c0 .88-.716 1.624-1.597 1.624H3.23c-.88 0-1.596-.743-1.596-1.624V3.966c0-.88.716-1.57 1.597-1.57h7.458V1.332H3.23C1.764 1.332.57 2.5.57 3.968v12.778c0 1.468 1.193 2.688 2.66 2.688h12.78c1.467 0 2.66-1.22 2.66-2.688V9.318h-1.064v7.428z"/>
  <path d="M18.807 1.17c-.804-.805-2.207-.805-3.012 0L8.652 8.313c-.068.068-.117.154-.14.247l-.752 3.01c-.045.182.008.374.14.507.1.1.237.156.376.156.043 0 .086-.005.13-.016l3.01-.753c.095-.023.18-.072.248-.14l7.143-7.143c.402-.4.624-.933.624-1.502 0-.57-.22-1.103-.62-1.505zm-7.79 9.297l-2.01.502.503-2.01 5.91-5.91 1.505 1.505-5.91 5.91zm7.037-7.04l-.376.377-1.506-1.506.376-.376c.402-.402 1.104-.402 1.506 0 .2.2.312.468.312.753s-.11.552-.312.753z"/>
</svg>
