<svg xmlns="http://www.w3.org/2000/svg" viewBox="0 0 20 18">
    <path
        d="M18.852 8.42h-3.39c-.16-1.04-1.052-1.84-2.135-1.84-1.085 0-1.976.8-2.135 1.84H.432c-.18 0-.324.147-.324.326 0 .18.145.325.325.325h10.76c.158 1.04 1.05 1.85 2.134 1.85 1.083 0 1.975-.8 2.134-1.84h3.4c.18 0 .327-.146.327-.325 0-.18-.146-.325-.326-.325zm-5.525 1.843c-.725 0-1.33-.51-1.48-1.19-.024-.107-.038-.215-.038-.326 0-.112.01-.22.03-.325.15-.68.753-1.193 1.48-1.193s1.33.51 1.48 1.19c.022.1.035.21.035.32 0 .11-.013.22-.036.323-.15.68-.756 1.19-1.48 1.19zm5.525-8.34H7.67C7.512.883 6.62.08 5.535.08 4.452.08 3.56.883 3.4 1.924H.434c-.18 0-.325.145-.325.324 0 .18.14.325.32.325H3.4c.16 1.04 1.052 1.842 2.136 1.842 1.083 0 1.975-.802 2.134-1.842h11.183c.18 0 .325-.145.325-.325 0-.18-.146-.324-.326-.324zM5.536 3.763c-.725 0-1.33-.51-1.48-1.19-.024-.105-.038-.214-.038-.325 0-.112.014-.22.037-.325.15-.68.755-1.192 1.48-1.192s1.33.52 1.48 1.2c.024.107.037.215.037.327 0 .11-.014.22-.036.325-.15.68-.756 1.19-1.48 1.19zM18.852 14.92H9.935c-.158-1.04-1.05-1.842-2.135-1.842-1.083 0-1.975.8-2.134 1.84H.433c-.18 0-.325.147-.325.326 0 .18.145.325.325.325h5.234c.158 1.04 1.05 1.84 2.133 1.84 1.084 0 1.977-.8 2.135-1.84h8.918c.18 0 .325-.15.325-.33 0-.18-.146-.33-.326-.33zM7.8 16.76c-.724 0-1.33-.51-1.48-1.19-.023-.106-.036-.214-.036-.326 0-.11.014-.218.036-.324.15-.68.755-1.192 1.48-1.192s1.332.512 1.48 1.192c.024.106.038.213.038.324 0 .113-.014.22-.037.326-.14.68-.75 1.19-1.48 1.19z"/>
</svg>
