<svg xmlns="http://www.w3.org/2000/svg" id="Calque_1" viewBox="0 0 17 17">
  <style>
    .st0{fill:#181D36;}
  </style>
  <path d="M8.5 0C3.8 0 0 3.8 0 8.5S3.8 17 8.5 17 17 13.2 17 8.5 13.2 0 8.5 0zM12 9H5V8h7v1z" class="st0"/>
</svg>
