<svg xmlns="http://www.w3.org/2000/svg" viewBox="0 0 10 15">
  <path fill="#1F2F4E" d="M6.64 6.704c1.017-.564 1.73-1.648 1.73-2.89C8.37 1.99 6.895.508 5.073.508s-3.3 1.483-3.3 3.306c0 1.242.65 2.326 1.667 2.89C1.467 7.374 0 9.244 0 11.44v1.61c0 .14.126.263.254.315.088.036 2.2.872 4.81.872 2.61 0 4.67-.836 4.756-.872.128-.052.18-.176.18-.314v-1.61c0-2.195-1.384-4.065-3.36-4.734zm-4.18-2.89c0-1.45 1.178-2.628 2.627-2.628 1.448 0 2.627 1.18 2.627 2.628 0 1.448-1.18 2.627-2.627 2.627-1.45 0-2.627-1.176-2.627-2.624zm6.864 9c-.508.207-2.305.745-4.322.745-2.012 0-3.644-.54-4.322-.747V11.44c0-2.383 1.94-4.32 4.322-4.32 2.383 0 4.322 1.937 4.322 4.32v1.375z"/>
</svg>
