<svg xmlns="http://www.w3.org/2000/svg" viewBox="0 0 10 10">
  <path fill="#EB1630" d="M5 0C2.233 0 0 2.233 0 5s2.233 5 5 5 5-2.233 5-5-2.233-5-5-5zM1.926 1.926C2.74 1.113 3.82.666 4.98.666c1.037 0 2.018.368 2.798 1.026L1.692 7.778C1.024 6.998.667 6.018.667 4.98c-.01-1.16.446-2.24 1.26-3.054zm6.148 6.148c-.814.813-1.895 1.26-3.054 1.26-1.037 0-2.018-.368-2.798-1.026l6.086-6.086c.668.78 1.025 1.76 1.025 2.798.01 1.16-.446 2.24-1.26 3.054z"/>
</svg>
