<svg xmlns="http://www.w3.org/2000/svg" viewBox="0 0 10 10">
  <g fill="#1FE55E">
    <path d="M5 0C2.247 0 0 2.247 0 5s2.247 5 5 5 5-2.247 5-5-2.247-5-5-5zm0 9.274C2.635 9.274.726 7.364.726 5 .726 2.635 2.636.726 5 .726 7.365.726 9.274 2.636 9.274 5c0 2.365-1.91 4.274-4.274 4.274z"/>
    <path d="M7.36 3.1L4.096 6.154 2.64 4.794c-.143-.134-.39-.134-.533 0-.143.13-.143.364 0 .496l1.72 1.61c.072.067.16.1.268.1.106 0 .195-.033.266-.1l3.535-3.302c.143-.133.143-.366 0-.498-.142-.133-.372-.133-.532 0z"/>
  </g>
</svg>
