<?xml version="1.0" encoding="utf-8"?>
<!-- Generator: Adobe Illustrator 14.0.0, SVG Export Plug-In  -->
<!DOCTYPE svg PUBLIC "-//W3C//DTD SVG 1.1//EN" "http://www.w3.org/Graphics/SVG/1.1/DTD/svg11.dtd" [
	<!ENTITY ns_flows "http://ns.adobe.com/Flows/1.0/">
]>
<svg version="1.1"
	 xmlns="http://www.w3.org/2000/svg" xmlns:xlink="http://www.w3.org/1999/xlink" xmlns:a="http://ns.adobe.com/AdobeSVGViewerExtensions/3.0/"
	 x="0px" y="0px" width="47px" height="55px" viewBox="0 0 47 55" enable-background="new 0 0 47 55" xml:space="preserve">
<defs>
</defs>
<g>
	<path fill="#0B2870" d="M6.657,5c0.17,0.236,0.536,0.023,1.05-0.061C7.837,4.916,7.878,5.174,7.9,5.306
		C7.682,5.604,7.446,5.778,7.639,6.145c0.129-0.022,0.258-0.042,0.388-0.063C8.631,5.715,8.29,4.446,9.257,4.687
		c0.709,0.283,1.115,1.145,0.834,1.855C9.658,7.142,9.205,7.61,8.75,8.083C8.664,8.367,8.728,8.75,8.896,8.992
		c0.472,0.452,0.689,0.946,0.9,1.444c0.534,0.84,0.831,1.853,1.367,2.695c0.834,1.851,1.667,3.706,1.854,5.663
		c0.167,1.035-0.201,2.026,0.356,2.998c0.428,0.989,1.2,1.658,1.861,2.478c0.645,0.692,1.246,1.126,1.76,1.836
		c0.983,1.164,2.615,2.225,2.226,3.883c-0.242,0.966-1.683,1.068-2.504,1.731c-0.671,0.772,0.144,1.702,0.637,2.286
		c0.836,1.058-0.46,2.062-1.298,2.598c0.321,0.344,0.818,0.131,0.987,0.369c0.236,0.626,0.944,0.91,0.661,1.616
		c-0.391,0.858-1.879,1.502-0.913,2.537c0.665,0.821,0.492,1.879,0.334,2.864c-0.199,1.227-1.147,1.908-2.011,2.315
		c-0.734,0.385-1.635,0.532-2.431,0.53c-0.281-0.086-0.562-0.176-0.817-0.131c-2.239,0.099-4.541-0.189-6.737,0.168
		c-0.623,0.235-1.249,0.472-1.725,0.815C1.391,49.709,0.37,52.338,0,55h45V25H24V3H6.657C6.33,3.924,6.278,4.617,6.657,5z"/>
</g>
<g>
	<path fill="#0B2870" d="M11.269,17.649c-0.19-0.365-1.226-0.195-1.913-0.35c-0.69-0.156-1.421,0.23-2.176,0.485
		c-0.647,0.106-1.228,0.6-1.853,0.835c-0.862,0.405-1.553,1.052-2.244,1.691c0.839-0.533,1.723-0.812,2.715-1.236
		c0.776-0.126,1.403-0.427,2.198-0.36c0.535,0.048,1.311-0.079,1.354,0.18c-0.09,1.076-1.598,1.585-2.208,2.745
		c-0.13,0.022-0.257,0.043-0.385,0.065c-0.347,0.315-0.111,0.944-0.5,1.005c-0.409-0.065-0.777,0.128-1.145,0.319
		c0.605,0.432,1.314,0.716,2.066,0.459c0.131-0.019,0.433,0.197,0.473,0.456c0,0,0.129-0.022,0.236-0.175
		c0.131-0.016,0.264-0.039,0.282,0.091c0.021,0.126,0.062,0.387,0.086,0.517c-0.306,0.578-0.995,0.424-1.489,0.639
		c1.076,0.091,2.107-0.076,2.972-0.486c0.732-0.383-0.257-1.55,0.158-2.279c-0.26,0.043-0.064-0.387-0.322-0.348
		c0.215-0.297,0.413-0.727,0.647-0.898c0.26-0.042,0.628-0.236,0.715-0.515c-0.042-0.26-0.581-0.307-0.496-0.583
		C11.133,19.264,11.655,18.383,11.269,17.649z"/>
</g>
<rect x="31" fill="#EC1C24" width="16" height="16"/>
</svg>
