<svg xmlns="http://www.w3.org/2000/svg" viewBox="0 0 10 14">
  <path fill="#1B2B4B" d="M5 0C2.974 0 1.333 1.64 1.333 3.667v2H1c-.548 0-1 .45-1 1v6c0 .548.452 1 1 1h8c.548 0 1-.452 1-1v-6c0-.55-.452-1-1-1h-.333v-2C8.667 1.64 7.027 0 5 0zm0 .667c1.668 0 3 1.332 3 3v2H2v-2c0-1.668 1.332-3 3-3zM1 6.333h8c.19 0 .333.143.333.334v6c0 .19-.143.333-.333.333H1c-.19 0-.333-.143-.333-.333v-6c0-.19.143-.334.333-.334z"/>
</svg>
