<svg xmlns="http://www.w3.org/2000/svg" viewBox="0 0 22 22">
  <path fill="#051639" stroke="#051639" stroke-width=".2" d="M12.31 21h-2.255l-1.09-2.69c-.51-.146-1.02-.4-1.456-.655L4.92 18.71l-1.6-1.6 1.055-2.583c-.255-.472-.546-.945-.69-1.49L1 11.944V9.69L3.69 8.6c.146-.51.4-1.018.655-1.455L3.29 4.565l1.6-1.6 2.583 1.053c.472-.254.945-.363 1.49-.51L10.056 1h2.254l1.09 2.51c.51.145 1.018.326 1.455.545l2.58-1.09 1.6 1.6-1.053 2.58c.254.473.363.946.51 1.455L21 9.69v2.255l-2.51 1.09c-.145.51-.326 1.02-.545 1.456l1.09 2.59-1.6 1.6-2.58-1.054c-.473.255-.946.546-1.455.69L12.31 21zm-2-.364h1.78l1.055-2.618.073-.073c.546-.145 1.055-.4 1.564-.654l.073-.03 2.545 1.05 1.236-1.27-1.054-2.545.036-.07c.255-.47.473-1.02.655-1.56l-.073-.074 2.436-1.055v-1.79L18.2 8.89l.036-.072c-.145-.545-.363-1.054-.618-1.563l-.036-.073 1.054-2.546-1.272-1.272-2.546 1.054-.073-.036c-.472-.255-1.018-.473-1.563-.655l-.073.073-1.06-2.436h-1.78L9.22 3.8l-.073-.036c-.545.145-1.054.363-1.563.618l-.073.036-2.55-1.054-1.23 1.272 1.05 2.546-.035.073c-.254.472-.472 1.018-.654 1.563l-.107.073-2.618 1.06v1.786l2.618 1.054.073.072c.145.545.4 1.09.654 1.563l.03.072-1.056 2.546 1.273 1.238 2.55-1.053.07.037c.473.252 1.02.47 1.563.652l.074.11 1.09 2.62zm.872-6.618c-.946 0-1.855-.436-2.473-1.163-.62-.728-.88-1.71-.7-2.655.255-1.273 1.237-2.29 2.51-2.51 1.163-.217 2.363.22 3.09 1.092.62.727.873 1.71.69 2.654-.253 1.273-1.235 2.29-2.508 2.51-.183.072-.4.072-.62.072zm0-6.036c-.182 0-.364 0-.546.036-1.127.218-2 1.09-2.218 2.218-.145.837.073 1.71.582 2.364.655.8 1.71 1.164 2.764.982 1.127-.218 2-1.09 2.218-2.218.145-.837-.073-1.71-.582-2.364-.582-.655-1.382-1.018-2.218-1.018z"/>
</svg>
